com\zll\controller\ClientController.class
com\zll\service\impl\AuthInfoServiceImpl.class
com\zll\util\HttpClientUtil.class
com\zll\util\HttpClientImitator.class
com\zll\controller\UserController.class
com\zll\util\SessionUtil.class
com\zll\dao\ClientMapper.class
com\zll\domain\AuthInfo.class
com\zll\domain\Client.class
com\zll\util\HttpClientImitator$1.class
com\zll\enums\LoginStatusEnum.class
com\zll\enums\RegisterStatusEnum.class
com\zll\util\MD5Utils.class
com\zll\service\impl\ClientServiceImpl.class
com\zll\domain\User.class
com\zll\controller\AuthInfoController.class
com\zll\service\IUserService.class
com\zll\service\IClientService.class
com\zll\enums\AuthConstant.class
com\zll\vo\ResultVo.class
com\zll\service\impl\UserServiceImpl.class
com\zll\enums\AuthStatusEnum.class
com\zll\enums\FlagEnum.class
com\zll\dao\UserMapper.class
com\zll\dao\AuthInfoMapper.class
com\zll\service\IAuthInfoService.class
com\zll\util\HttpClientImitator$HttpClientHolder.class
